…
``` r

donor
#> # A tibble: 161 × 2
#>    Default Choice
#>    <chr>   <fct> 
#>  1 opt-in  donor 
#>  2 opt-in  donor 
#>  3 opt-in  donor 
#>  4 opt-in  donor 
#>  5 opt-in  donor 
#>  6 opt-in  donor 
#>  7 opt-in  donor 
#>  8 opt-in  donor 
#>  9 opt-in  donor 
#> 10 opt-in  donor 
#> # ℹ 151 more rows
```
…
coffee_height <- read_delim("https://www.isi-stats.com/isi/data/chap6/CoffeeHeight.txt")
#> Rows: 51 Columns: 2
#> ── Column specification ────────────────────────────────────────────────────────
#> Delimiter: "\t"
#> chr (1): coffee
#> dbl (1): height
#> 
#> ℹ Use `spec()` to retrieve the full column specification for this data.
#> ℹ Specify the column types or set `show_col_types = FALSE` to quiet this message.
```

``` r

coffee_height
#> # A tibble: 51 × 2
#>    coffee height
#>    <chr>   <dbl>
#>  1 yes        65
#>  2 no         65
#>  3 no         72
#>  4 yes        69
#>  5 yes        66
#>  6 no         63
#>  7 yes        64
#>  8 no         63
#>  9 no         72
#> 10 no         62
#> # ℹ 41 more rows
```
…
  data <- remove_missing(data)
  model <- lm(data = data, formula = y ~ x + cat)
  data$y <- model$fitted

  data
  
}

palmerpenguins::penguins %>% 
  select(x = body_mass_g, y = flipper_length_mm, cat = species) %>% 
  compute_panel_lm()
#> Warning: Removed 2 rows containing missing values or values outside the scale
#> range.
#> # A tibble: 342 × 3
#>        x     y cat   
#>    <int> <dbl> <fct> 
#>  1  3750  190. Adelie
#>  2  3800  191. Adelie
#>  3  3250  186. Adelie
#>  4  3450  188. Adelie
#>  5  3650  190. Adelie
#>  6  3625  189. Adelie
#>  7  4675  198. Adelie
#>  8  3475  188. Adelie
#>  9  4250  195. Adelie
#> 10  3300  187. Adelie
#> # ℹ 332 more rows
```
…
